%YAML 1.1
%TAG !u! tag:unity3d.com,2011:
--- !u!114 &11400000
MonoBehaviour:
  m_ObjectHideFlags: 0
  m_CorrespondingSourceObject: {fileID: 0}
  m_PrefabInstance: {fileID: 0}
  m_PrefabAsset: {fileID: 0}
  m_GameObject: {fileID: 0}
  m_Enabled: 1
  m_EditorHideFlags: 0
  m_Script: {fileID: 11500000, guid: f7a361efaf099e44c9dae6c13e990284, type: 3}
  m_Name: Wave1
  m_EditorClassIdentifier: 
  EnemyList:
  - {fileID: 6662192704128754049, guid: ac6f1891a68e4df4fbc0bb616fdba158, type: 3}
  - {fileID: 6662192704128754049, guid: ac6f1891a68e4df4fbc0bb616fdba158, type: 3}
  - {fileID: 6662192704128754049, guid: ac6f1891a68e4df4fbc0bb616fdba158, type: 3}
  TotalWave: 3
