%YAML 1.1
%TAG !u! tag:unity3d.com,2011:
--- !u!74 &7400000
AnimationClip:
  m_ObjectHideFlags: 0
  m_CorrespondingSourceObject: {fileID: 0}
  m_PrefabInstance: {fileID: 0}
  m_PrefabAsset: {fileID: 0}
  m_Name: BirdBossRecover_anim
  serializedVersion: 6
  m_Legacy: 0
  m_Compressed: 0
  m_UseHighQualityCurve: 1
  m_RotationCurves: []
  m_CompressedRotationCurves: []
  m_EulerCurves: []
  m_PositionCurves: []
  m_ScaleCurves: []
  m_FloatCurves: []
  m_PPtrCurves:
  - curve:
    - time: 0
      value: {fileID: 21300000, guid: cfde05d70d5c75540a36aa408cb6101b, type: 3}
    - time: 0.05882353
      value: {fileID: 21300000, guid: cfde05d70d5c75540a36aa408cb6101b, type: 3}
    - time: 0.11764706
      value: {fileID: 21300000, guid: 356e844214cedbe49b2c2667c80a88c6, type: 3}
    - time: 0.1764706
      value: {fileID: 21300000, guid: 2b9e70a64db2d304f98afc85d9612036, type: 3}
    - time: 0.23529412
      value: {fileID: 21300000, guid: 384369d8e1b34f141bde5011d32e94ef, type: 3}
    - time: 0.29411766
      value: {fileID: 21300000, guid: 32ec9adebfb89af4dbaea6dd5805b11a, type: 3}
    - time: 0.3529412
      value: {fileID: 21300000, guid: 485204a6b83648d438d1f7803d70e63a, type: 3}
    - time: 0.4117647
      value: {fileID: 21300000, guid: 0263cccb9ed6e7347a7d32dd16fa3925, type: 3}
    - time: 0.47058824
      value: {fileID: 21300000, guid: aa3b7d87a57a3664183b47024ff69a2b, type: 3}
    - time: 0.5294118
      value: {fileID: 21300000, guid: 651cbff36f4b057448b8b38b62b68165, type: 3}
    - time: 0.5882353
      value: {fileID: 21300000, guid: f82265a7104864a4bb28542b9d7c9eec, type: 3}
    - time: 0.64705884
      value: {fileID: 21300000, guid: 3bc5aef30727a434b8c42160ab75ac8b, type: 3}
    - time: 0.7058824
      value: {fileID: 21300000, guid: 161559d94f503e541831f18588c487ab, type: 3}
    - time: 0.7647059
      value: {fileID: 21300000, guid: 18c5e8a3a08894f489b18d8a7b237d34, type: 3}
    - time: 0.8235294
      value: {fileID: 21300000, guid: 1a642aee99f7bb14b9f0bb764528c35c, type: 3}
    - time: 0.88235295
      value: {fileID: 21300000, guid: 069855b80f5fcfa479dc801e24ca1955, type: 3}
    - time: 0.9411765
      value: {fileID: 21300000, guid: 805c566c9b01ab345aeb6c58d204b7d8, type: 3}
    - time: 1
      value: {fileID: 21300000, guid: 763548ead15b7d443adcca10cc6fe9d7, type: 3}
    attribute: m_Sprite
    path: 
    classID: 212
    script: {fileID: 0}
  m_SampleRate: 17
  m_WrapMode: 0
  m_Bounds:
    m_Center: {x: 0, y: 0, z: 0}
    m_Extent: {x: 0, y: 0, z: 0}
  m_ClipBindingConstant:
    genericBindings:
    - serializedVersion: 2
      path: 0
      attribute: 0
      script: {fileID: 0}
      typeID: 212
      customType: 23
      isPPtrCurve: 1
    pptrCurveMapping:
    - {fileID: 21300000, guid: cfde05d70d5c75540a36aa408cb6101b, type: 3}
    - {fileID: 21300000, guid: cfde05d70d5c75540a36aa408cb6101b, type: 3}
    - {fileID: 21300000, guid: 356e844214cedbe49b2c2667c80a88c6, type: 3}
    - {fileID: 21300000, guid: 2b9e70a64db2d304f98afc85d9612036, type: 3}
    - {fileID: 21300000, guid: 384369d8e1b34f141bde5011d32e94ef, type: 3}
    - {fileID: 21300000, guid: 32ec9adebfb89af4dbaea6dd5805b11a, type: 3}
    - {fileID: 21300000, guid: 485204a6b83648d438d1f7803d70e63a, type: 3}
    - {fileID: 21300000, guid: 0263cccb9ed6e7347a7d32dd16fa3925, type: 3}
    - {fileID: 21300000, guid: aa3b7d87a57a3664183b47024ff69a2b, type: 3}
    - {fileID: 21300000, guid: 651cbff36f4b057448b8b38b62b68165, type: 3}
    - {fileID: 21300000, guid: f82265a7104864a4bb28542b9d7c9eec, type: 3}
    - {fileID: 21300000, guid: 3bc5aef30727a434b8c42160ab75ac8b, type: 3}
    - {fileID: 21300000, guid: 161559d94f503e541831f18588c487ab, type: 3}
    - {fileID: 21300000, guid: 18c5e8a3a08894f489b18d8a7b237d34, type: 3}
    - {fileID: 21300000, guid: 1a642aee99f7bb14b9f0bb764528c35c, type: 3}
    - {fileID: 21300000, guid: 069855b80f5fcfa479dc801e24ca1955, type: 3}
    - {fileID: 21300000, guid: 805c566c9b01ab345aeb6c58d204b7d8, type: 3}
    - {fileID: 21300000, guid: 763548ead15b7d443adcca10cc6fe9d7, type: 3}
  m_AnimationClipSettings:
    serializedVersion: 2
    m_AdditiveReferencePoseClip: {fileID: 0}
    m_AdditiveReferencePoseTime: 0
    m_StartTime: 0
    m_StopTime: 1.0588236
    m_OrientationOffsetY: 0
    m_Level: 0
    m_CycleOffset: 0
    m_HasAdditiveReferencePose: 0
    m_LoopTime: 0
    m_LoopBlend: 0
    m_LoopBlendOrientation: 0
    m_LoopBlendPositionY: 0
    m_LoopBlendPositionXZ: 0
    m_KeepOriginalOrientation: 0
    m_KeepOriginalPositionY: 1
    m_KeepOriginalPositionXZ: 0
    m_HeightFromFeet: 0
    m_Mirror: 0
  m_EditorCurves: []
  m_EulerEditorCurves: []
  m_HasGenericRootTransform: 0
  m_HasMotionFloatCurves: 0
  m_Events:
  - time: 1
    functionName: EndDizzy
    data: 
    objectReferenceParameter: {fileID: 0}
    floatParameter: 0
    intParameter: 0
    messageOptions: 0
