%YAML 1.1
%TAG !u! tag:unity3d.com,2011:
--- !u!74 &7400000
AnimationClip:
  m_ObjectHideFlags: 0
  m_CorrespondingSourceObject: {fileID: 0}
  m_PrefabInstance: {fileID: 0}
  m_PrefabAsset: {fileID: 0}
  m_Name: LogThrowAttack_Anim
  serializedVersion: 6
  m_Legacy: 0
  m_Compressed: 0
  m_UseHighQualityCurve: 1
  m_RotationCurves: []
  m_CompressedRotationCurves: []
  m_EulerCurves: []
  m_PositionCurves: []
  m_ScaleCurves: []
  m_FloatCurves: []
  m_PPtrCurves:
  - curve:
    - time: 0
      value: {fileID: 21300000, guid: d8cda4125f92c7f4fb8f0730b45281b3, type: 3}
    - time: 0.035714287
      value: {fileID: 21300000, guid: 11537d0f07997584bb8ef8d434e90dfb, type: 3}
    - time: 0.071428575
      value: {fileID: 21300000, guid: 7345b4a047d90e4479e978b9b060df86, type: 3}
    - time: 0.10714286
      value: {fileID: 21300000, guid: 0ea43d8e51702104aaa48e46cf77ca73, type: 3}
    - time: 0.14285715
      value: {fileID: 21300000, guid: aa47155c2961f5040bbef07f3818065a, type: 3}
    - time: 0.17857143
      value: {fileID: 21300000, guid: 238b3e07866fab04ea6be41b931e79eb, type: 3}
    - time: 0.21428572
      value: {fileID: 21300000, guid: 30268151f06921748ae9b37ec47945ff, type: 3}
    - time: 0.25
      value: {fileID: 21300000, guid: a475740d85589494bb6d75da499fbb1a, type: 3}
    - time: 0.2857143
      value: {fileID: 21300000, guid: b923f3f403504a244917686e0bc0724d, type: 3}
    - time: 0.32142857
      value: {fileID: 21300000, guid: 8a381ac2c8cbaf84383414f2109c9af0, type: 3}
    - time: 0.35714287
      value: {fileID: 21300000, guid: ac6ce50cb7e7f23438b0252e7ad90bc7, type: 3}
    - time: 0.39285713
      value: {fileID: 21300000, guid: ae2a27d85771dd842acb577d5a6f53dc, type: 3}
    - time: 0.42857143
      value: {fileID: 21300000, guid: 29b78a07068f1c448b7297891bf2c5df, type: 3}
    - time: 0.4642857
      value: {fileID: 21300000, guid: eb2e9a9527387954bb2975ccca727124, type: 3}
    - time: 0.5
      value: {fileID: 21300000, guid: 699bb688dea54eb40b1cabe6b3c7c8d1, type: 3}
    - time: 0.53571427
      value: {fileID: 21300000, guid: f033250b6c9f1cb4b9d0c3b5bec01145, type: 3}
    - time: 0.5714286
      value: {fileID: 21300000, guid: 25feb105da9c76b40b846aa9275bc4a3, type: 3}
    - time: 0.60714287
      value: {fileID: 21300000, guid: 29ca4fea4d7369846b9ab974560acf67, type: 3}
    - time: 0.64285713
      value: {fileID: 21300000, guid: 4256971beb9fa1941ae67ee3a8cc49b1, type: 3}
    - time: 0.6785714
      value: {fileID: 21300000, guid: 72737dffb002acb40950802cbede9111, type: 3}
    - time: 0.71428573
      value: {fileID: 21300000, guid: 34452a163804cfb47bde3563277edce0, type: 3}
    - time: 0.75
      value: {fileID: 21300000, guid: 71048d920ac6ce64c94f01cda544b41f, type: 3}
    - time: 0.78571427
      value: {fileID: 21300000, guid: 02a486f3728609c439744a5322471213, type: 3}
    - time: 0.8214286
      value: {fileID: 21300000, guid: 4a1a2c75c324d134b868fe51b8fddb48, type: 3}
    - time: 0.85714287
      value: {fileID: 21300000, guid: 9f672463c68434f438c7d2f42a3d0402, type: 3}
    - time: 0.89285713
      value: {fileID: 21300000, guid: aa919e22c7c08024a8e8f05d56db2543, type: 3}
    - time: 0.9285714
      value: {fileID: 21300000, guid: a53db9d638c2d65459f0482ee909a0d1, type: 3}
    - time: 0.96428573
      value: {fileID: 21300000, guid: 07cd8c6fca38ada47b0d5f46c63bd786, type: 3}
    - time: 1
      value: {fileID: 21300000, guid: 8bc53e29a0876244d8ceb1c6f0120dc5, type: 3}
    attribute: m_Sprite
    path: 
    classID: 212
    script: {fileID: 0}
  m_SampleRate: 28
  m_WrapMode: 0
  m_Bounds:
    m_Center: {x: 0, y: 0, z: 0}
    m_Extent: {x: 0, y: 0, z: 0}
  m_ClipBindingConstant:
    genericBindings:
    - serializedVersion: 2
      path: 0
      attribute: 0
      script: {fileID: 0}
      typeID: 212
      customType: 23
      isPPtrCurve: 1
    pptrCurveMapping:
    - {fileID: 21300000, guid: d8cda4125f92c7f4fb8f0730b45281b3, type: 3}
    - {fileID: 21300000, guid: 11537d0f07997584bb8ef8d434e90dfb, type: 3}
    - {fileID: 21300000, guid: 7345b4a047d90e4479e978b9b060df86, type: 3}
    - {fileID: 21300000, guid: 0ea43d8e51702104aaa48e46cf77ca73, type: 3}
    - {fileID: 21300000, guid: aa47155c2961f5040bbef07f3818065a, type: 3}
    - {fileID: 21300000, guid: 238b3e07866fab04ea6be41b931e79eb, type: 3}
    - {fileID: 21300000, guid: 30268151f06921748ae9b37ec47945ff, type: 3}
    - {fileID: 21300000, guid: a475740d85589494bb6d75da499fbb1a, type: 3}
    - {fileID: 21300000, guid: b923f3f403504a244917686e0bc0724d, type: 3}
    - {fileID: 21300000, guid: 8a381ac2c8cbaf84383414f2109c9af0, type: 3}
    - {fileID: 21300000, guid: ac6ce50cb7e7f23438b0252e7ad90bc7, type: 3}
    - {fileID: 21300000, guid: ae2a27d85771dd842acb577d5a6f53dc, type: 3}
    - {fileID: 21300000, guid: 29b78a07068f1c448b7297891bf2c5df, type: 3}
    - {fileID: 21300000, guid: eb2e9a9527387954bb2975ccca727124, type: 3}
    - {fileID: 21300000, guid: 699bb688dea54eb40b1cabe6b3c7c8d1, type: 3}
    - {fileID: 21300000, guid: f033250b6c9f1cb4b9d0c3b5bec01145, type: 3}
    - {fileID: 21300000, guid: 25feb105da9c76b40b846aa9275bc4a3, type: 3}
    - {fileID: 21300000, guid: 29ca4fea4d7369846b9ab974560acf67, type: 3}
    - {fileID: 21300000, guid: 4256971beb9fa1941ae67ee3a8cc49b1, type: 3}
    - {fileID: 21300000, guid: 72737dffb002acb40950802cbede9111, type: 3}
    - {fileID: 21300000, guid: 34452a163804cfb47bde3563277edce0, type: 3}
    - {fileID: 21300000, guid: 71048d920ac6ce64c94f01cda544b41f, type: 3}
    - {fileID: 21300000, guid: 02a486f3728609c439744a5322471213, type: 3}
    - {fileID: 21300000, guid: 4a1a2c75c324d134b868fe51b8fddb48, type: 3}
    - {fileID: 21300000, guid: 9f672463c68434f438c7d2f42a3d0402, type: 3}
    - {fileID: 21300000, guid: aa919e22c7c08024a8e8f05d56db2543, type: 3}
    - {fileID: 21300000, guid: a53db9d638c2d65459f0482ee909a0d1, type: 3}
    - {fileID: 21300000, guid: 07cd8c6fca38ada47b0d5f46c63bd786, type: 3}
    - {fileID: 21300000, guid: 8bc53e29a0876244d8ceb1c6f0120dc5, type: 3}
  m_AnimationClipSettings:
    serializedVersion: 2
    m_AdditiveReferencePoseClip: {fileID: 0}
    m_AdditiveReferencePoseTime: 0
    m_StartTime: 0
    m_StopTime: 1.0357143
    m_OrientationOffsetY: 0
    m_Level: 0
    m_CycleOffset: 0
    m_HasAdditiveReferencePose: 0
    m_LoopTime: 0
    m_LoopBlend: 0
    m_LoopBlendOrientation: 0
    m_LoopBlendPositionY: 0
    m_LoopBlendPositionXZ: 0
    m_KeepOriginalOrientation: 0
    m_KeepOriginalPositionY: 1
    m_KeepOriginalPositionXZ: 0
    m_HeightFromFeet: 0
    m_Mirror: 0
  m_EditorCurves: []
  m_EulerEditorCurves: []
  m_HasGenericRootTransform: 0
  m_HasMotionFloatCurves: 0
  m_Events:
  - time: 0.21428572
    functionName: PlayLogThrowClip
    data: 
    objectReferenceParameter: {fileID: 0}
    floatParameter: 0
    intParameter: 0
    messageOptions: 0
  - time: 0.75
    functionName: SpawnLogThrow
    data: 
    objectReferenceParameter: {fileID: 0}
    floatParameter: 0
    intParameter: 0
    messageOptions: 0
